{
  "path": "/files/{id}",
  "description": "This action allows the user to update a file",
  "operations": [
    {
      "httpMethod": "PUT",
      "nickname": "UpdateFile",
      "parameters": [
        {
          "name": "id",
          "required": "true",
          "description": "file identifier",
          "allowMultiple": "false",
          "dataType": "Integer",
          "paramType": "path"
        },
        {
          "name": "Body Parameters",
          "required": "true",
          "description": "List of required parameters",
          "allowMultiple": "false",
          "dataType": "update",
          "paramType": "body"
        }
      ],
      "summary": "Update",
      "notes": "This action allows the user to update a file"
    }
  ]
}