{"path": "/users/deauth",
    "description": "",
    "operations": [
        {
            "httpMethod": "POST",
            "nickname": "DeAuthenticate",

            "summary": "Deauthentication",
            "notes": ""
        }
    ]
}