{"path": "/users/profile/photo",
    "description": "This page allows the user to update photo",
    "operations": [
        {
            "httpMethod": "POST",
            "nickname": "UpdatePhoto",
            "parameters": [
                {
                    "name": "image",
                    "required": "true",
                    "description": "file to upload",
                    "allowMultiple": "false",
                    "dataType": "file",
                    "paramType": "query"
                }
            ],
            "summary": "Upload Avatar",
            "notes": "This page allows the user to update photo. Photo must be sent with header <strong>Content-Type: multipart/form-data;</strong> and has a name <strong>avatar</strong>"
        }
    ]}